G04 #@! TF.GenerationSoftware,KiCad,Pcbnew,(5.0.0)*
G04 #@! TF.CreationDate,2018-08-31T21:45:25-04:00*
G04 #@! TF.ProjectId,rotary-phone,726F746172792D70686F6E652E6B6963,rev?*
G04 #@! TF.SameCoordinates,Original*
G04 #@! TF.FileFunction,Soldermask,Top*
G04 #@! TF.FilePolarity,Negative*
%FSLAX46Y46*%
G04 Gerber Fmt 4.6, Leading zero omitted, Abs format (unit mm)*
G04 Created by KiCad (PCBNEW (5.0.0)) date 08/31/18 21:45:25*
%MOMM*%
%LPD*%
G01*
G04 APERTURE LIST*
%ADD10O,2.400000X2.305000*%
%ADD11R,2.400000X2.305000*%
%ADD12R,1.600000X2.900000*%
%ADD13C,1.900000*%
%ADD14C,5.400000*%
%ADD15R,9.200000X10.000000*%
%ADD16R,3.900000X2.000000*%
%ADD17C,0.100000*%
%ADD18C,0.800000*%
%ADD19R,1.000000X1.100000*%
%ADD20R,1.900000X4.000000*%
%ADD21R,3.400000X3.200000*%
%ADD22R,2.000000X2.000000*%
%ADD23R,1.000000X1.950000*%
%ADD24R,1.950000X1.000000*%
%ADD25R,0.650000X1.150000*%
%ADD26C,0.990000*%
%ADD27C,1.375000*%
%ADD28C,1.650000*%
G04 APERTURE END LIST*
D10*
G04 #@! TO.C,Q2*
X78867000Y-78105000D03*
X78867000Y-80645000D03*
D11*
X78867000Y-83185000D03*
G04 #@! TD*
D12*
G04 #@! TO.C,J1*
X113954999Y-96499999D03*
X115054999Y-102999999D03*
X119054999Y-102999999D03*
X122054999Y-102999999D03*
D13*
X123654999Y-99749999D03*
X116654999Y-99749999D03*
G04 #@! TD*
D14*
G04 #@! TO.C,MH26*
X117475000Y-116205000D03*
G04 #@! TD*
G04 #@! TO.C,MH25*
X117475000Y-108585000D03*
G04 #@! TD*
G04 #@! TO.C,MH24*
X125095000Y-116205000D03*
G04 #@! TD*
G04 #@! TO.C,MH23*
X125095000Y-108585000D03*
G04 #@! TD*
D15*
G04 #@! TO.C,C6*
X110090000Y-74295000D03*
X123590000Y-74295000D03*
G04 #@! TD*
D16*
G04 #@! TO.C,C2*
X63240000Y-95250000D03*
X68840000Y-95250000D03*
G04 #@! TD*
G04 #@! TO.C,C5*
X68840000Y-102870000D03*
X63240000Y-102870000D03*
G04 #@! TD*
G04 #@! TO.C,C1*
X117215000Y-89535000D03*
X122815000Y-89535000D03*
G04 #@! TD*
D17*
G04 #@! TO.C,C3*
G36*
X105979603Y-84055963D02*
X105999018Y-84058843D01*
X106018057Y-84063612D01*
X106036537Y-84070224D01*
X106054279Y-84078616D01*
X106071114Y-84088706D01*
X106086879Y-84100398D01*
X106101421Y-84113579D01*
X106114602Y-84128121D01*
X106126294Y-84143886D01*
X106136384Y-84160721D01*
X106144776Y-84178463D01*
X106151388Y-84196943D01*
X106156157Y-84215982D01*
X106159037Y-84235397D01*
X106160000Y-84255000D01*
X106160000Y-84655000D01*
X106159037Y-84674603D01*
X106156157Y-84694018D01*
X106151388Y-84713057D01*
X106144776Y-84731537D01*
X106136384Y-84749279D01*
X106126294Y-84766114D01*
X106114602Y-84781879D01*
X106101421Y-84796421D01*
X106086879Y-84809602D01*
X106071114Y-84821294D01*
X106054279Y-84831384D01*
X106036537Y-84839776D01*
X106018057Y-84846388D01*
X105999018Y-84851157D01*
X105979603Y-84854037D01*
X105960000Y-84855000D01*
X105500000Y-84855000D01*
X105480397Y-84854037D01*
X105460982Y-84851157D01*
X105441943Y-84846388D01*
X105423463Y-84839776D01*
X105405721Y-84831384D01*
X105388886Y-84821294D01*
X105373121Y-84809602D01*
X105358579Y-84796421D01*
X105345398Y-84781879D01*
X105333706Y-84766114D01*
X105323616Y-84749279D01*
X105315224Y-84731537D01*
X105308612Y-84713057D01*
X105303843Y-84694018D01*
X105300963Y-84674603D01*
X105300000Y-84655000D01*
X105300000Y-84255000D01*
X105300963Y-84235397D01*
X105303843Y-84215982D01*
X105308612Y-84196943D01*
X105315224Y-84178463D01*
X105323616Y-84160721D01*
X105333706Y-84143886D01*
X105345398Y-84128121D01*
X105358579Y-84113579D01*
X105373121Y-84100398D01*
X105388886Y-84088706D01*
X105405721Y-84078616D01*
X105423463Y-84070224D01*
X105441943Y-84063612D01*
X105460982Y-84058843D01*
X105480397Y-84055963D01*
X105500000Y-84055000D01*
X105960000Y-84055000D01*
X105979603Y-84055963D01*
X105979603Y-84055963D01*
G37*
D18*
X105730000Y-84455000D03*
D17*
G36*
X105339603Y-84055963D02*
X105359018Y-84058843D01*
X105378057Y-84063612D01*
X105396537Y-84070224D01*
X105414279Y-84078616D01*
X105431114Y-84088706D01*
X105446879Y-84100398D01*
X105461421Y-84113579D01*
X105474602Y-84128121D01*
X105486294Y-84143886D01*
X105496384Y-84160721D01*
X105504776Y-84178463D01*
X105511388Y-84196943D01*
X105516157Y-84215982D01*
X105519037Y-84235397D01*
X105520000Y-84255000D01*
X105520000Y-84655000D01*
X105519037Y-84674603D01*
X105516157Y-84694018D01*
X105511388Y-84713057D01*
X105504776Y-84731537D01*
X105496384Y-84749279D01*
X105486294Y-84766114D01*
X105474602Y-84781879D01*
X105461421Y-84796421D01*
X105446879Y-84809602D01*
X105431114Y-84821294D01*
X105414279Y-84831384D01*
X105396537Y-84839776D01*
X105378057Y-84846388D01*
X105359018Y-84851157D01*
X105339603Y-84854037D01*
X105320000Y-84855000D01*
X104860000Y-84855000D01*
X104840397Y-84854037D01*
X104820982Y-84851157D01*
X104801943Y-84846388D01*
X104783463Y-84839776D01*
X104765721Y-84831384D01*
X104748886Y-84821294D01*
X104733121Y-84809602D01*
X104718579Y-84796421D01*
X104705398Y-84781879D01*
X104693706Y-84766114D01*
X104683616Y-84749279D01*
X104675224Y-84731537D01*
X104668612Y-84713057D01*
X104663843Y-84694018D01*
X104660963Y-84674603D01*
X104660000Y-84655000D01*
X104660000Y-84255000D01*
X104660963Y-84235397D01*
X104663843Y-84215982D01*
X104668612Y-84196943D01*
X104675224Y-84178463D01*
X104683616Y-84160721D01*
X104693706Y-84143886D01*
X104705398Y-84128121D01*
X104718579Y-84113579D01*
X104733121Y-84100398D01*
X104748886Y-84088706D01*
X104765721Y-84078616D01*
X104783463Y-84070224D01*
X104801943Y-84063612D01*
X104820982Y-84058843D01*
X104840397Y-84055963D01*
X104860000Y-84055000D01*
X105320000Y-84055000D01*
X105339603Y-84055963D01*
X105339603Y-84055963D01*
G37*
D18*
X105090000Y-84455000D03*
G04 #@! TD*
D19*
G04 #@! TO.C,D2*
X104840000Y-103505000D03*
X103440000Y-103505000D03*
G04 #@! TD*
D20*
G04 #@! TO.C,L2*
X110490000Y-103505000D03*
X107440000Y-103505000D03*
G04 #@! TD*
D21*
G04 #@! TO.C,L1*
X68015000Y-111760000D03*
X57715000Y-111760000D03*
G04 #@! TD*
D14*
G04 #@! TO.C,MH3*
X49530000Y-66040000D03*
G04 #@! TD*
G04 #@! TO.C,MH1*
X49530000Y-91440000D03*
G04 #@! TD*
G04 #@! TO.C,MH16*
X77470000Y-94030830D03*
G04 #@! TD*
G04 #@! TO.C,MH17*
X92710000Y-66675000D03*
G04 #@! TD*
G04 #@! TO.C,MH18*
X84773487Y-94030830D03*
G04 #@! TD*
G04 #@! TO.C,MH19*
X99060000Y-66675000D03*
G04 #@! TD*
G04 #@! TO.C,MH20*
X73660000Y-116840000D03*
G04 #@! TD*
G04 #@! TO.C,MH21*
X92075000Y-100330000D03*
G04 #@! TD*
G04 #@! TO.C,MH22*
X85090000Y-100330000D03*
G04 #@! TD*
G04 #@! TO.C,MH15*
X77470000Y-100330000D03*
G04 #@! TD*
G04 #@! TO.C,MH2*
X49530000Y-100330000D03*
G04 #@! TD*
G04 #@! TO.C,MH4*
X49530000Y-74295000D03*
G04 #@! TD*
G04 #@! TO.C,MH5*
X49530000Y-82550000D03*
G04 #@! TD*
G04 #@! TO.C,MH6*
X99060000Y-83185000D03*
G04 #@! TD*
G04 #@! TO.C,MH7*
X92710000Y-74930000D03*
G04 #@! TD*
G04 #@! TO.C,MH8*
X99060000Y-74930000D03*
G04 #@! TD*
G04 #@! TO.C,MH9*
X92710000Y-83185000D03*
G04 #@! TD*
G04 #@! TO.C,MH10*
X101600000Y-116840000D03*
G04 #@! TD*
G04 #@! TO.C,MH11*
X94615000Y-116840000D03*
G04 #@! TD*
G04 #@! TO.C,MH12*
X87630000Y-116840000D03*
G04 #@! TD*
G04 #@! TO.C,MH13*
X80645000Y-116840000D03*
G04 #@! TD*
G04 #@! TO.C,MH14*
X92075000Y-93980000D03*
G04 #@! TD*
D22*
G04 #@! TO.C,U3*
X68072000Y-78282800D03*
X60452000Y-83362800D03*
X68072000Y-80822800D03*
X60452000Y-80822800D03*
X68072000Y-83362800D03*
X60452000Y-78282800D03*
G04 #@! TD*
G04 #@! TO.C,U2*
X60452000Y-66141600D03*
X68072000Y-71221600D03*
X60452000Y-68681600D03*
X68072000Y-68681600D03*
X60452000Y-71221600D03*
X68072000Y-66141600D03*
G04 #@! TD*
D23*
G04 #@! TO.C,U1*
X107315000Y-92870000D03*
X106045000Y-92870000D03*
X104775000Y-92870000D03*
X103505000Y-92870000D03*
X103505000Y-87470000D03*
X104775000Y-87470000D03*
X106045000Y-87470000D03*
X107315000Y-87470000D03*
G04 #@! TD*
D24*
G04 #@! TO.C,U4*
X53815000Y-97790000D03*
X53815000Y-99060000D03*
X53815000Y-100330000D03*
X53815000Y-101600000D03*
X59215000Y-101600000D03*
X59215000Y-100330000D03*
X59215000Y-99060000D03*
X59215000Y-97790000D03*
G04 #@! TD*
D25*
G04 #@! TO.C,U5*
X84340000Y-109500000D03*
X84840000Y-109500000D03*
X85340000Y-109500000D03*
X85840000Y-109500000D03*
X85840000Y-106400000D03*
X85340000Y-106400000D03*
X84840000Y-106400000D03*
X84340000Y-106400000D03*
G04 #@! TD*
D11*
G04 #@! TO.C,Q1*
X78867000Y-71043800D03*
D10*
X78867000Y-68503800D03*
X78867000Y-65963800D03*
G04 #@! TD*
D17*
G04 #@! TO.C,R5*
G36*
X55031759Y-68188192D02*
X55055785Y-68191756D01*
X55079345Y-68197657D01*
X55102214Y-68205840D01*
X55124171Y-68216224D01*
X55145004Y-68228711D01*
X55164512Y-68243180D01*
X55182509Y-68259491D01*
X55198820Y-68277488D01*
X55213289Y-68296996D01*
X55225776Y-68317829D01*
X55236160Y-68339786D01*
X55244343Y-68362655D01*
X55250244Y-68386215D01*
X55253808Y-68410241D01*
X55255000Y-68434500D01*
X55255000Y-68979500D01*
X55253808Y-69003759D01*
X55250244Y-69027785D01*
X55244343Y-69051345D01*
X55236160Y-69074214D01*
X55225776Y-69096171D01*
X55213289Y-69117004D01*
X55198820Y-69136512D01*
X55182509Y-69154509D01*
X55164512Y-69170820D01*
X55145004Y-69185289D01*
X55124171Y-69197776D01*
X55102214Y-69208160D01*
X55079345Y-69216343D01*
X55055785Y-69222244D01*
X55031759Y-69225808D01*
X55007500Y-69227000D01*
X54512500Y-69227000D01*
X54488241Y-69225808D01*
X54464215Y-69222244D01*
X54440655Y-69216343D01*
X54417786Y-69208160D01*
X54395829Y-69197776D01*
X54374996Y-69185289D01*
X54355488Y-69170820D01*
X54337491Y-69154509D01*
X54321180Y-69136512D01*
X54306711Y-69117004D01*
X54294224Y-69096171D01*
X54283840Y-69074214D01*
X54275657Y-69051345D01*
X54269756Y-69027785D01*
X54266192Y-69003759D01*
X54265000Y-68979500D01*
X54265000Y-68434500D01*
X54266192Y-68410241D01*
X54269756Y-68386215D01*
X54275657Y-68362655D01*
X54283840Y-68339786D01*
X54294224Y-68317829D01*
X54306711Y-68296996D01*
X54321180Y-68277488D01*
X54337491Y-68259491D01*
X54355488Y-68243180D01*
X54374996Y-68228711D01*
X54395829Y-68216224D01*
X54417786Y-68205840D01*
X54440655Y-68197657D01*
X54464215Y-68191756D01*
X54488241Y-68188192D01*
X54512500Y-68187000D01*
X55007500Y-68187000D01*
X55031759Y-68188192D01*
X55031759Y-68188192D01*
G37*
D26*
X54760000Y-68707000D03*
D17*
G36*
X56001759Y-68188192D02*
X56025785Y-68191756D01*
X56049345Y-68197657D01*
X56072214Y-68205840D01*
X56094171Y-68216224D01*
X56115004Y-68228711D01*
X56134512Y-68243180D01*
X56152509Y-68259491D01*
X56168820Y-68277488D01*
X56183289Y-68296996D01*
X56195776Y-68317829D01*
X56206160Y-68339786D01*
X56214343Y-68362655D01*
X56220244Y-68386215D01*
X56223808Y-68410241D01*
X56225000Y-68434500D01*
X56225000Y-68979500D01*
X56223808Y-69003759D01*
X56220244Y-69027785D01*
X56214343Y-69051345D01*
X56206160Y-69074214D01*
X56195776Y-69096171D01*
X56183289Y-69117004D01*
X56168820Y-69136512D01*
X56152509Y-69154509D01*
X56134512Y-69170820D01*
X56115004Y-69185289D01*
X56094171Y-69197776D01*
X56072214Y-69208160D01*
X56049345Y-69216343D01*
X56025785Y-69222244D01*
X56001759Y-69225808D01*
X55977500Y-69227000D01*
X55482500Y-69227000D01*
X55458241Y-69225808D01*
X55434215Y-69222244D01*
X55410655Y-69216343D01*
X55387786Y-69208160D01*
X55365829Y-69197776D01*
X55344996Y-69185289D01*
X55325488Y-69170820D01*
X55307491Y-69154509D01*
X55291180Y-69136512D01*
X55276711Y-69117004D01*
X55264224Y-69096171D01*
X55253840Y-69074214D01*
X55245657Y-69051345D01*
X55239756Y-69027785D01*
X55236192Y-69003759D01*
X55235000Y-68979500D01*
X55235000Y-68434500D01*
X55236192Y-68410241D01*
X55239756Y-68386215D01*
X55245657Y-68362655D01*
X55253840Y-68339786D01*
X55264224Y-68317829D01*
X55276711Y-68296996D01*
X55291180Y-68277488D01*
X55307491Y-68259491D01*
X55325488Y-68243180D01*
X55344996Y-68228711D01*
X55365829Y-68216224D01*
X55387786Y-68205840D01*
X55410655Y-68197657D01*
X55434215Y-68191756D01*
X55458241Y-68188192D01*
X55482500Y-68187000D01*
X55977500Y-68187000D01*
X56001759Y-68188192D01*
X56001759Y-68188192D01*
G37*
D26*
X55730000Y-68707000D03*
G04 #@! TD*
D17*
G04 #@! TO.C,R6*
G36*
X56001759Y-80126192D02*
X56025785Y-80129756D01*
X56049345Y-80135657D01*
X56072214Y-80143840D01*
X56094171Y-80154224D01*
X56115004Y-80166711D01*
X56134512Y-80181180D01*
X56152509Y-80197491D01*
X56168820Y-80215488D01*
X56183289Y-80234996D01*
X56195776Y-80255829D01*
X56206160Y-80277786D01*
X56214343Y-80300655D01*
X56220244Y-80324215D01*
X56223808Y-80348241D01*
X56225000Y-80372500D01*
X56225000Y-80917500D01*
X56223808Y-80941759D01*
X56220244Y-80965785D01*
X56214343Y-80989345D01*
X56206160Y-81012214D01*
X56195776Y-81034171D01*
X56183289Y-81055004D01*
X56168820Y-81074512D01*
X56152509Y-81092509D01*
X56134512Y-81108820D01*
X56115004Y-81123289D01*
X56094171Y-81135776D01*
X56072214Y-81146160D01*
X56049345Y-81154343D01*
X56025785Y-81160244D01*
X56001759Y-81163808D01*
X55977500Y-81165000D01*
X55482500Y-81165000D01*
X55458241Y-81163808D01*
X55434215Y-81160244D01*
X55410655Y-81154343D01*
X55387786Y-81146160D01*
X55365829Y-81135776D01*
X55344996Y-81123289D01*
X55325488Y-81108820D01*
X55307491Y-81092509D01*
X55291180Y-81074512D01*
X55276711Y-81055004D01*
X55264224Y-81034171D01*
X55253840Y-81012214D01*
X55245657Y-80989345D01*
X55239756Y-80965785D01*
X55236192Y-80941759D01*
X55235000Y-80917500D01*
X55235000Y-80372500D01*
X55236192Y-80348241D01*
X55239756Y-80324215D01*
X55245657Y-80300655D01*
X55253840Y-80277786D01*
X55264224Y-80255829D01*
X55276711Y-80234996D01*
X55291180Y-80215488D01*
X55307491Y-80197491D01*
X55325488Y-80181180D01*
X55344996Y-80166711D01*
X55365829Y-80154224D01*
X55387786Y-80143840D01*
X55410655Y-80135657D01*
X55434215Y-80129756D01*
X55458241Y-80126192D01*
X55482500Y-80125000D01*
X55977500Y-80125000D01*
X56001759Y-80126192D01*
X56001759Y-80126192D01*
G37*
D26*
X55730000Y-80645000D03*
D17*
G36*
X55031759Y-80126192D02*
X55055785Y-80129756D01*
X55079345Y-80135657D01*
X55102214Y-80143840D01*
X55124171Y-80154224D01*
X55145004Y-80166711D01*
X55164512Y-80181180D01*
X55182509Y-80197491D01*
X55198820Y-80215488D01*
X55213289Y-80234996D01*
X55225776Y-80255829D01*
X55236160Y-80277786D01*
X55244343Y-80300655D01*
X55250244Y-80324215D01*
X55253808Y-80348241D01*
X55255000Y-80372500D01*
X55255000Y-80917500D01*
X55253808Y-80941759D01*
X55250244Y-80965785D01*
X55244343Y-80989345D01*
X55236160Y-81012214D01*
X55225776Y-81034171D01*
X55213289Y-81055004D01*
X55198820Y-81074512D01*
X55182509Y-81092509D01*
X55164512Y-81108820D01*
X55145004Y-81123289D01*
X55124171Y-81135776D01*
X55102214Y-81146160D01*
X55079345Y-81154343D01*
X55055785Y-81160244D01*
X55031759Y-81163808D01*
X55007500Y-81165000D01*
X54512500Y-81165000D01*
X54488241Y-81163808D01*
X54464215Y-81160244D01*
X54440655Y-81154343D01*
X54417786Y-81146160D01*
X54395829Y-81135776D01*
X54374996Y-81123289D01*
X54355488Y-81108820D01*
X54337491Y-81092509D01*
X54321180Y-81074512D01*
X54306711Y-81055004D01*
X54294224Y-81034171D01*
X54283840Y-81012214D01*
X54275657Y-80989345D01*
X54269756Y-80965785D01*
X54266192Y-80941759D01*
X54265000Y-80917500D01*
X54265000Y-80372500D01*
X54266192Y-80348241D01*
X54269756Y-80324215D01*
X54275657Y-80300655D01*
X54283840Y-80277786D01*
X54294224Y-80255829D01*
X54306711Y-80234996D01*
X54321180Y-80215488D01*
X54337491Y-80197491D01*
X54355488Y-80181180D01*
X54374996Y-80166711D01*
X54395829Y-80154224D01*
X54417786Y-80143840D01*
X54440655Y-80135657D01*
X54464215Y-80129756D01*
X54488241Y-80126192D01*
X54512500Y-80125000D01*
X55007500Y-80125000D01*
X55031759Y-80126192D01*
X55031759Y-80126192D01*
G37*
D26*
X54760000Y-80645000D03*
G04 #@! TD*
D17*
G04 #@! TO.C,R7*
G36*
X57739943Y-92659155D02*
X57773312Y-92664105D01*
X57806035Y-92672302D01*
X57837797Y-92683666D01*
X57868293Y-92698090D01*
X57897227Y-92715432D01*
X57924323Y-92735528D01*
X57949318Y-92758182D01*
X57971972Y-92783177D01*
X57992068Y-92810273D01*
X58009410Y-92839207D01*
X58023834Y-92869703D01*
X58035198Y-92901465D01*
X58043395Y-92934188D01*
X58048345Y-92967557D01*
X58050000Y-93001250D01*
X58050000Y-93688750D01*
X58048345Y-93722443D01*
X58043395Y-93755812D01*
X58035198Y-93788535D01*
X58023834Y-93820297D01*
X58009410Y-93850793D01*
X57992068Y-93879727D01*
X57971972Y-93906823D01*
X57949318Y-93931818D01*
X57924323Y-93954472D01*
X57897227Y-93974568D01*
X57868293Y-93991910D01*
X57837797Y-94006334D01*
X57806035Y-94017698D01*
X57773312Y-94025895D01*
X57739943Y-94030845D01*
X57706250Y-94032500D01*
X56593750Y-94032500D01*
X56560057Y-94030845D01*
X56526688Y-94025895D01*
X56493965Y-94017698D01*
X56462203Y-94006334D01*
X56431707Y-93991910D01*
X56402773Y-93974568D01*
X56375677Y-93954472D01*
X56350682Y-93931818D01*
X56328028Y-93906823D01*
X56307932Y-93879727D01*
X56290590Y-93850793D01*
X56276166Y-93820297D01*
X56264802Y-93788535D01*
X56256605Y-93755812D01*
X56251655Y-93722443D01*
X56250000Y-93688750D01*
X56250000Y-93001250D01*
X56251655Y-92967557D01*
X56256605Y-92934188D01*
X56264802Y-92901465D01*
X56276166Y-92869703D01*
X56290590Y-92839207D01*
X56307932Y-92810273D01*
X56328028Y-92783177D01*
X56350682Y-92758182D01*
X56375677Y-92735528D01*
X56402773Y-92715432D01*
X56431707Y-92698090D01*
X56462203Y-92683666D01*
X56493965Y-92672302D01*
X56526688Y-92664105D01*
X56560057Y-92659155D01*
X56593750Y-92657500D01*
X57706250Y-92657500D01*
X57739943Y-92659155D01*
X57739943Y-92659155D01*
G37*
D27*
X57150000Y-93345000D03*
D17*
G36*
X57739943Y-94534155D02*
X57773312Y-94539105D01*
X57806035Y-94547302D01*
X57837797Y-94558666D01*
X57868293Y-94573090D01*
X57897227Y-94590432D01*
X57924323Y-94610528D01*
X57949318Y-94633182D01*
X57971972Y-94658177D01*
X57992068Y-94685273D01*
X58009410Y-94714207D01*
X58023834Y-94744703D01*
X58035198Y-94776465D01*
X58043395Y-94809188D01*
X58048345Y-94842557D01*
X58050000Y-94876250D01*
X58050000Y-95563750D01*
X58048345Y-95597443D01*
X58043395Y-95630812D01*
X58035198Y-95663535D01*
X58023834Y-95695297D01*
X58009410Y-95725793D01*
X57992068Y-95754727D01*
X57971972Y-95781823D01*
X57949318Y-95806818D01*
X57924323Y-95829472D01*
X57897227Y-95849568D01*
X57868293Y-95866910D01*
X57837797Y-95881334D01*
X57806035Y-95892698D01*
X57773312Y-95900895D01*
X57739943Y-95905845D01*
X57706250Y-95907500D01*
X56593750Y-95907500D01*
X56560057Y-95905845D01*
X56526688Y-95900895D01*
X56493965Y-95892698D01*
X56462203Y-95881334D01*
X56431707Y-95866910D01*
X56402773Y-95849568D01*
X56375677Y-95829472D01*
X56350682Y-95806818D01*
X56328028Y-95781823D01*
X56307932Y-95754727D01*
X56290590Y-95725793D01*
X56276166Y-95695297D01*
X56264802Y-95663535D01*
X56256605Y-95630812D01*
X56251655Y-95597443D01*
X56250000Y-95563750D01*
X56250000Y-94876250D01*
X56251655Y-94842557D01*
X56256605Y-94809188D01*
X56264802Y-94776465D01*
X56276166Y-94744703D01*
X56290590Y-94714207D01*
X56307932Y-94685273D01*
X56328028Y-94658177D01*
X56350682Y-94633182D01*
X56375677Y-94610528D01*
X56402773Y-94590432D01*
X56431707Y-94573090D01*
X56462203Y-94558666D01*
X56493965Y-94547302D01*
X56526688Y-94539105D01*
X56560057Y-94534155D01*
X56593750Y-94532500D01*
X57706250Y-94532500D01*
X57739943Y-94534155D01*
X57739943Y-94534155D01*
G37*
D27*
X57150000Y-95220000D03*
G04 #@! TD*
D17*
G04 #@! TO.C,R1*
G36*
X98952346Y-92906589D02*
X98984380Y-92911341D01*
X99015794Y-92919210D01*
X99046286Y-92930120D01*
X99075561Y-92943966D01*
X99103338Y-92960615D01*
X99129350Y-92979907D01*
X99153345Y-93001655D01*
X99175093Y-93025650D01*
X99194385Y-93051662D01*
X99211034Y-93079439D01*
X99224880Y-93108714D01*
X99235790Y-93139206D01*
X99243659Y-93170620D01*
X99248411Y-93202654D01*
X99250000Y-93235000D01*
X99250000Y-94725000D01*
X99248411Y-94757346D01*
X99243659Y-94789380D01*
X99235790Y-94820794D01*
X99224880Y-94851286D01*
X99211034Y-94880561D01*
X99194385Y-94908338D01*
X99175093Y-94934350D01*
X99153345Y-94958345D01*
X99129350Y-94980093D01*
X99103338Y-94999385D01*
X99075561Y-95016034D01*
X99046286Y-95029880D01*
X99015794Y-95040790D01*
X98984380Y-95048659D01*
X98952346Y-95053411D01*
X98920000Y-95055000D01*
X97930000Y-95055000D01*
X97897654Y-95053411D01*
X97865620Y-95048659D01*
X97834206Y-95040790D01*
X97803714Y-95029880D01*
X97774439Y-95016034D01*
X97746662Y-94999385D01*
X97720650Y-94980093D01*
X97696655Y-94958345D01*
X97674907Y-94934350D01*
X97655615Y-94908338D01*
X97638966Y-94880561D01*
X97625120Y-94851286D01*
X97614210Y-94820794D01*
X97606341Y-94789380D01*
X97601589Y-94757346D01*
X97600000Y-94725000D01*
X97600000Y-93235000D01*
X97601589Y-93202654D01*
X97606341Y-93170620D01*
X97614210Y-93139206D01*
X97625120Y-93108714D01*
X97638966Y-93079439D01*
X97655615Y-93051662D01*
X97674907Y-93025650D01*
X97696655Y-93001655D01*
X97720650Y-92979907D01*
X97746662Y-92960615D01*
X97774439Y-92943966D01*
X97803714Y-92930120D01*
X97834206Y-92919210D01*
X97865620Y-92911341D01*
X97897654Y-92906589D01*
X97930000Y-92905000D01*
X98920000Y-92905000D01*
X98952346Y-92906589D01*
X98952346Y-92906589D01*
G37*
D28*
X98425000Y-93980000D03*
D17*
G36*
X101752346Y-92906589D02*
X101784380Y-92911341D01*
X101815794Y-92919210D01*
X101846286Y-92930120D01*
X101875561Y-92943966D01*
X101903338Y-92960615D01*
X101929350Y-92979907D01*
X101953345Y-93001655D01*
X101975093Y-93025650D01*
X101994385Y-93051662D01*
X102011034Y-93079439D01*
X102024880Y-93108714D01*
X102035790Y-93139206D01*
X102043659Y-93170620D01*
X102048411Y-93202654D01*
X102050000Y-93235000D01*
X102050000Y-94725000D01*
X102048411Y-94757346D01*
X102043659Y-94789380D01*
X102035790Y-94820794D01*
X102024880Y-94851286D01*
X102011034Y-94880561D01*
X101994385Y-94908338D01*
X101975093Y-94934350D01*
X101953345Y-94958345D01*
X101929350Y-94980093D01*
X101903338Y-94999385D01*
X101875561Y-95016034D01*
X101846286Y-95029880D01*
X101815794Y-95040790D01*
X101784380Y-95048659D01*
X101752346Y-95053411D01*
X101720000Y-95055000D01*
X100730000Y-95055000D01*
X100697654Y-95053411D01*
X100665620Y-95048659D01*
X100634206Y-95040790D01*
X100603714Y-95029880D01*
X100574439Y-95016034D01*
X100546662Y-94999385D01*
X100520650Y-94980093D01*
X100496655Y-94958345D01*
X100474907Y-94934350D01*
X100455615Y-94908338D01*
X100438966Y-94880561D01*
X100425120Y-94851286D01*
X100414210Y-94820794D01*
X100406341Y-94789380D01*
X100401589Y-94757346D01*
X100400000Y-94725000D01*
X100400000Y-93235000D01*
X100401589Y-93202654D01*
X100406341Y-93170620D01*
X100414210Y-93139206D01*
X100425120Y-93108714D01*
X100438966Y-93079439D01*
X100455615Y-93051662D01*
X100474907Y-93025650D01*
X100496655Y-93001655D01*
X100520650Y-92979907D01*
X100546662Y-92960615D01*
X100574439Y-92943966D01*
X100603714Y-92930120D01*
X100634206Y-92919210D01*
X100665620Y-92911341D01*
X100697654Y-92906589D01*
X100730000Y-92905000D01*
X101720000Y-92905000D01*
X101752346Y-92906589D01*
X101752346Y-92906589D01*
G37*
D28*
X101225000Y-93980000D03*
G04 #@! TD*
D17*
G04 #@! TO.C,R4*
G36*
X108092346Y-97861589D02*
X108124380Y-97866341D01*
X108155794Y-97874210D01*
X108186286Y-97885120D01*
X108215561Y-97898966D01*
X108243338Y-97915615D01*
X108269350Y-97934907D01*
X108293345Y-97956655D01*
X108315093Y-97980650D01*
X108334385Y-98006662D01*
X108351034Y-98034439D01*
X108364880Y-98063714D01*
X108375790Y-98094206D01*
X108383659Y-98125620D01*
X108388411Y-98157654D01*
X108390000Y-98190000D01*
X108390000Y-99180000D01*
X108388411Y-99212346D01*
X108383659Y-99244380D01*
X108375790Y-99275794D01*
X108364880Y-99306286D01*
X108351034Y-99335561D01*
X108334385Y-99363338D01*
X108315093Y-99389350D01*
X108293345Y-99413345D01*
X108269350Y-99435093D01*
X108243338Y-99454385D01*
X108215561Y-99471034D01*
X108186286Y-99484880D01*
X108155794Y-99495790D01*
X108124380Y-99503659D01*
X108092346Y-99508411D01*
X108060000Y-99510000D01*
X106570000Y-99510000D01*
X106537654Y-99508411D01*
X106505620Y-99503659D01*
X106474206Y-99495790D01*
X106443714Y-99484880D01*
X106414439Y-99471034D01*
X106386662Y-99454385D01*
X106360650Y-99435093D01*
X106336655Y-99413345D01*
X106314907Y-99389350D01*
X106295615Y-99363338D01*
X106278966Y-99335561D01*
X106265120Y-99306286D01*
X106254210Y-99275794D01*
X106246341Y-99244380D01*
X106241589Y-99212346D01*
X106240000Y-99180000D01*
X106240000Y-98190000D01*
X106241589Y-98157654D01*
X106246341Y-98125620D01*
X106254210Y-98094206D01*
X106265120Y-98063714D01*
X106278966Y-98034439D01*
X106295615Y-98006662D01*
X106314907Y-97980650D01*
X106336655Y-97956655D01*
X106360650Y-97934907D01*
X106386662Y-97915615D01*
X106414439Y-97898966D01*
X106443714Y-97885120D01*
X106474206Y-97874210D01*
X106505620Y-97866341D01*
X106537654Y-97861589D01*
X106570000Y-97860000D01*
X108060000Y-97860000D01*
X108092346Y-97861589D01*
X108092346Y-97861589D01*
G37*
D28*
X107315000Y-98685000D03*
D17*
G36*
X108092346Y-95061589D02*
X108124380Y-95066341D01*
X108155794Y-95074210D01*
X108186286Y-95085120D01*
X108215561Y-95098966D01*
X108243338Y-95115615D01*
X108269350Y-95134907D01*
X108293345Y-95156655D01*
X108315093Y-95180650D01*
X108334385Y-95206662D01*
X108351034Y-95234439D01*
X108364880Y-95263714D01*
X108375790Y-95294206D01*
X108383659Y-95325620D01*
X108388411Y-95357654D01*
X108390000Y-95390000D01*
X108390000Y-96380000D01*
X108388411Y-96412346D01*
X108383659Y-96444380D01*
X108375790Y-96475794D01*
X108364880Y-96506286D01*
X108351034Y-96535561D01*
X108334385Y-96563338D01*
X108315093Y-96589350D01*
X108293345Y-96613345D01*
X108269350Y-96635093D01*
X108243338Y-96654385D01*
X108215561Y-96671034D01*
X108186286Y-96684880D01*
X108155794Y-96695790D01*
X108124380Y-96703659D01*
X108092346Y-96708411D01*
X108060000Y-96710000D01*
X106570000Y-96710000D01*
X106537654Y-96708411D01*
X106505620Y-96703659D01*
X106474206Y-96695790D01*
X106443714Y-96684880D01*
X106414439Y-96671034D01*
X106386662Y-96654385D01*
X106360650Y-96635093D01*
X106336655Y-96613345D01*
X106314907Y-96589350D01*
X106295615Y-96563338D01*
X106278966Y-96535561D01*
X106265120Y-96506286D01*
X106254210Y-96475794D01*
X106246341Y-96444380D01*
X106241589Y-96412346D01*
X106240000Y-96380000D01*
X106240000Y-95390000D01*
X106241589Y-95357654D01*
X106246341Y-95325620D01*
X106254210Y-95294206D01*
X106265120Y-95263714D01*
X106278966Y-95234439D01*
X106295615Y-95206662D01*
X106314907Y-95180650D01*
X106336655Y-95156655D01*
X106360650Y-95134907D01*
X106386662Y-95115615D01*
X106414439Y-95098966D01*
X106443714Y-95085120D01*
X106474206Y-95074210D01*
X106505620Y-95066341D01*
X106537654Y-95061589D01*
X106570000Y-95060000D01*
X108060000Y-95060000D01*
X108092346Y-95061589D01*
X108092346Y-95061589D01*
G37*
D28*
X107315000Y-95885000D03*
G04 #@! TD*
M02*
